{
    "className": "UsersRating",
    "title": "Топ пользователей",
    "description": "Стандартный топ пользователей + шаблонизатор",
    "limit": 4,
	"usersort": "rating",
	"view_banned": 1,
	"active": 1
}