{
"className": "GenTags",
"title": "Генератор тегов",
"description": "Функциональный js-генератор тегов",
"min_word":"4",
"min_repeat":"3",
"ignoring":"",
"ignoring_hide":"nbsp,amp,quot,",
"text_obj":"#editor",
"text_editor_obj":".wysibb-text-editor",
"ignore_obj":"noRepeat",
"length_obj":"minLength",
"repeat_obj":"minRepeat",
"tags_obj":"keywords",
"active":1
}